{
  "plants":[
    {
      "flowers": "Flowers",
      "family": [
        "Anemone",
        "Amaryllis",
        "Amaranth",
        "Aster",
        "Azalea"
      ]
    },
    {
      "plants": "Plants",
      "family": [
        "Alder",
        "Black Alder",
        "Common Alder",
        "False Alder",
        "Gray Alder",
        "Speckled Alder",
        "Striped Alder",
        "White Alder"
      ]
    },
  {
    "cannabis": "Cannabis",
    "family": [
      "A-Train",
      "Afghanica",
      "AK-47",
      "AK-48",
      "Alakazam",
      "Alaskan Ice",
      "Ambrosia",
      "Americano",
      "AMS",
      "Amsterdam Flame",
      "Anesthesia",
      "Angelmatic",
      "Annihilation Bud",
      "Apollo 13BX",
      "Arctic Sun"
    ]
  }
  ]
}
